…
> 
> levels(my_data$Population)
 [1] "BHP"  "CPS"  "CRWA" "DHFA" "FPPI" "FSSP" "HGRF" "HNL"  "IRO"  "MPO"  "MRLP" "NRVP"
[13] "OICP" "PCRA" "PPFD" "PPNP" "PTP"  "RRL"  "RRO"  "STT"  "TGCP"
> 
> 
> ###Calculate and output summary statistics for your data, including datum counts, data mean and standard deviation
> 
> group_by(my_data, Population) %>%
+   summarise(
+     count = n(),
+     mean = mean(Shell_Width_2, na.rm = TRUE),
+     sd = sd(Shell_Width_2, na.rm = TRUE)
+   )
# A tibble: 21 x 4
   Population count  mean    sd
   <fct>      <int> <dbl> <dbl>
 1 BHP           10  17.1 1.15 
 2 CPS           23  17.3 0.912
 3 CRWA          25  17.2 0.692
 4 DHFA          25  18.7 1.03 
 5 FPPI          11  19.5 0.899
 6 FSSP          22  16.9 0.848
 7 HGRF          23  15.1 0.818
 8 HNL           33  17.9 0.949
 9 IRO           13  19.0 1.02 
10 MPO           24  16.7 0.977
# ... with 11 more rows
…
