…
> 
> levels(my_data$Population)
 [1] "BHP"  "CPS"  "CRWA" "DHFA" "FPPI" "FSSP" "HGRF" "HNL"  "IRO"  "MPO"  "MRLP" "NRVP"
[13] "OICP" "PCRA" "PPFD" "PPNP" "PTP"  "RRL"  "RRO"  "STT"  "TGCP"
> 
> 
> ###Calculate and output summary statistics for your data, including datum counts, data mean and standard deviation
> 
> group_by(my_data, Population) %>%
+   summarise(
+     count = n(),
+     mean = mean(Shell_Height, na.rm = TRUE),
+     sd = sd(Shell_Height, na.rm = TRUE)
+   )
# A tibble: 21 x 4
   Population count  mean    sd
   <fct>      <int> <dbl> <dbl>
 1 BHP           10 10.6  0.886
 2 CPS           23 10.0  0.366
 3 CRWA          25 10.6  0.457
 4 DHFA          25 11.6  0.697
 5 FPPI          11 11.6  0.579
 6 FSSP          22 10.7  0.546
 7 HGRF          23  8.89 0.463
 8 HNL           32 11.3  0.740
 9 IRO           13 12.2  0.804
10 MPO           24 10.3  0.719
# ... with 11 more rows
…
