…
> 
> levels(my_data$Population)
 [1] "BHP"  "CPS"  "CRWA" "DHFA" "FPPI" "FSSP" "HGRF" "HNL"  "IRO"  "MPO"  "MRLP" "NRVP"
[13] "OICP" "PCRA" "PPFD" "PPNP" "PTP"  "RRL"  "RRO"  "STT"  "TGCP"
> 
> 
> ###Calculate and output summary statistics for your data, including datum counts, data mean and standard deviation
> 
> group_by(my_data, Population) %>%
+   summarise(
+     count = n(),
+     mean = mean(Shell_Width_1, na.rm = TRUE),
+     sd = sd(Shell_Width_1, na.rm = TRUE)
+   )
# A tibble: 21 x 4
   Population count  mean    sd
   <fct>      <int> <dbl> <dbl>
 1 BHP           10  20.2 1.05 
 2 CPS           23  20.1 1.04 
 3 CRWA          25  20.0 0.788
 4 DHFA          25  21.9 1.09 
 5 FPPI          11  22.4 1.06 
 6 FSSP          22  20.0 1.00 
 7 HGRF          23  17.7 0.978
 8 HNL           30  20.8 1.10 
 9 IRO           13  21.8 1.08 
10 MPO           24  19.5 1.13 
# ... with 11 more rows
…
