…
> 
> levels(my_data$Population)
 [1] "BHP"  "CPS"  "CRWA" "DHFA" "FPPI" "FSSP" "HGRF" "HNL"  "IRO"  "MPO"  "MRLP" "NRVP"
[13] "OICP" "PCRA" "PPFD" "PPNP" "PTP"  "RRL"  "RRO"  "STT"  "TGCP"
> 
> 
> ###Calculate and output summary statistics for your data, including datum counts, data mean and standard deviation
> 
> group_by(my_data, Population) %>%
+   summarise(
+     count = n(),
+     mean = mean(Shell_Whorls, na.rm = TRUE),
+     sd = sd(Shell_Whorls, na.rm = TRUE)
+   )
# A tibble: 21 x 4
   Population count  mean    sd
   <fct>      <int> <dbl> <dbl>
 1 BHP           10  4.95 0.230
 2 CPS           23  5.04 0.144
 3 CRWA          25  4.94 0.149
 4 DHFA          25  4.92 0.119
 5 FPPI          11  5.14 0.172
 6 FSSP          22  4.98 0.153
 7 HGRF          23  4.66 0.143
 8 HNL           33  5.08 0.171
 9 IRO           13  5.08 0.158
10 MPO           24  4.93 0.202
# ... with 11 more rows
…
